…
## read sas file

``` r
pulse_df = read_sas("./data/public_pulse_data.sas7bdat")
pulse_df
```

    ## # A tibble: 1,087 × 7
    ##       ID   age Sex    BDIScore_BL BDIScore_01m BDIScore_06m BDIScore_12m
    ##    <dbl> <dbl> <chr>        <dbl>        <dbl>        <dbl>        <dbl>
    ##  1 10003  48.0 male             7            1            2            0
    ##  2 10015  72.5 male             6           NA           NA           NA
    ##  3 10022  58.5 male            14            3            8           NA
    ##  4 10026  72.7 male            20            6           18           16
    ##  5 10035  60.4 male             4            0            1            2
    ##  6 10050  84.7 male             2           10           12            8
    ##  7 10078  31.3 male             4            0           NA           NA
    ##  8 10088  56.9 male             5           NA            0            2
    ##  9 10091  76.0 male             0            3            4            0
    ## 10 10092  74.2 female          10            2           11            6
    ## # ℹ 1,077 more rows
…
``` r
pups_readr
```

    ## # A tibble: 316 × 6
    ##    ...1          `1 = male, 2 = female` ...3    ...4    ...5     ...6   
    ##    <chr>         <chr>                  <chr>   <chr>   <chr>    <chr>  
    ##  1 <NA>          <NA>                   <NA>    <NA>    <NA>     <NA>   
    ##  2 <NA>          <NA>                   <NA>    <NA>    <NA>     <NA>   
    ##  3 Litter Number Sex                    PD ears PD eyes PD pivot PD walk
    ##  4 #85           1                      4       13      7        11     
    ##  5 #85           1                      4       13      7        12     
    ##  6 #1/2/95/2     1                      5       13      7        9      
    ##  7 #1/2/95/2     1                      5       13      8        10     
    ##  8 #5/5/3/83/3-3 1                      5       13      8        10     
    ##  9 #5/5/3/83/3-3 1                      5       14      6        9      
    ## 10 #5/4/2/95/2   1                      .       14      5        9      
    ## # ℹ 306 more rows
